<?xml version="1.0" encoding="UTF-8" standalone="no"?>
<svg
   xmlns:dc="http://purl.org/dc/elements/1.1/"
   xmlns:cc="http://creativecommons.org/ns#"
   xmlns:rdf="http://www.w3.org/1999/02/22-rdf-syntax-ns#"
   xmlns:svg="http://www.w3.org/2000/svg"
   xmlns="http://www.w3.org/2000/svg"
   xmlns:sodipodi="http://sodipodi.sourceforge.net/DTD/sodipodi-0.dtd"
   xmlns:inkscape="http://www.inkscape.org/namespaces/inkscape"
   sodipodi:docname="basic-f15.svg"
   inkscape:version="1.0beta1 (a4ee55bc41, 2019-11-15)"
   sodipodi:version="0.32"
   id="svg2928"
   viewBox="0 0 300 57"
   height="57"
   width="300"
   version="1.1">
  <style
     id="style471" />
  <defs
     id="defs3" />
  <sodipodi:namedview
     inkscape:window-maximized="1"
     inkscape:window-y="27"
     inkscape:window-x="54"
     inkscape:window-height="1016"
     inkscape:window-width="1866"
     inkscape:guide-bbox="true"
     showguides="true"
     units="px"
     showgrid="false"
     inkscape:document-rotation="0"
     inkscape:current-layer="svg2928"
     inkscape:document-units="px"
     inkscape:cy="28.5"
     inkscape:cx="160"
     inkscape:zoom="1.4"
     inkscape:pageshadow="2"
     inkscape:pageopacity="0.0"
     borderopacity="1.0"
     bordercolor="#666666"
     pagecolor="#ffffff"
     id="base"
     inkscape:lockguides="true" />
  <metadata
     id="metadata4">
    <rdf:RDF>
      <cc:Work
         rdf:about="">
        <dc:format>image/svg+xml</dc:format>
        <dc:type
           rdf:resource="http://purl.org/dc/dcmitype/StillImage" />
        <dc:title />
      </cc:Work>
    </rdf:RDF>
  </metadata>
  <g
     id="layer1"
     inkscape:groupmode="layer"
     inkscape:label="Layer 1">
    <path
       transform="matrix(0.395123,0.68437,-0.68437,0.395123,2799.7053,-1592.6504)"
       d="m 126.89077,3940.5291 c -1.71282,2.7762 -13.22706,-1.9871 -15.91989,-0.2673 -2.69282,1.7197 -2.71702,13.9718 -5.85673,14.5249 -3.1397,0.5531 -6.353456,-10.3196 -9.54332,-11.1002 -3.189864,-0.7806 -13.306559,5.7281 -15.626844,3.5431 -2.320285,-2.1851 6.075604,-11.8192 4.656461,-14.7755 -1.419143,-2.9564 -12.432136,-3.072 -12.315301,-6.2422 0.116835,-3.1702 12.009309,-3.7964 13.504694,-6.565 1.495384,-2.7687 -2.944614,-13.2402 -0.398354,-15.118 2.546261,-1.8777 10.873107,5.667 14.076356,5.0626 3.203248,-0.6043 7.301388,-9.5359 10.364568,-8.6831 3.06318,0.8528 0.25246,11.2853 2.77803,13.3437 2.52556,2.0584 12.64893,-0.7081 13.80211,2.2959 1.15318,3.0041 -8.72654,9.769 -8.76411,12.9318 -0.0376,3.1628 10.95516,8.2731 9.24233,11.0493 z"
       inkscape:randomized="0.047"
       inkscape:rounded="0.21"
       inkscape:flatsided="false"
       sodipodi:arg2="0.97023339"
       sodipodi:arg1="0.52143444"
       sodipodi:r2="16.983238"
       sodipodi:r1="28.739008"
       sodipodi:cy="3927.1016"
       sodipodi:cx="100.73942"
       sodipodi:sides="7"
       id="path2575"
       style="color:#000000;fill:#ac7335;fill-opacity:1;fill-rule:nonzero;stroke:none;stroke-width:3pt;stroke-linecap:butt;stroke-linejoin:miter;stroke-miterlimit:4;stroke-dashoffset:0;stroke-opacity:1;marker:none;marker-start:none;marker-mid:none;marker-end:none"
       sodipodi:type="star" />
    <path
       transform="matrix(0.8326,0.480703,-0.480703,0.8326,1967.1693,-3288.1714)"
       d="m 107.61985,3941.5994 c -0.52759,2.111 -9.076278,-3.5197 -10.950726,-2.3937 -2.497569,1.5003 -1.972152,11.8539 -4.862587,12.594 -2.169298,0.5554 -1.58417,-8.522 -3.562608,-9.4629 -2.636127,-1.2536 -11.028981,4.1052 -13.221239,2.1498 -1.64531,-1.4675 6.950523,-5.6944 6.894183,-7.9439 -0.07507,-2.9973 -9.643382,-9.8527 -9.082097,-12.7574 0.42125,-2.18 9.47274,5.1817 11.396919,4.018 2.563832,-1.5505 2.337547,-12.5985 5.229421,-13.243 2.170378,-0.4837 1.693081,9.0878 3.659936,10.0965 2.620694,1.3439 12.061048,-3.374 14.214158,-1.3192 1.61593,1.5422 -7.371867,4.7859 -7.26099,6.987 0.14775,2.9328 8.24859,8.462 7.54563,11.2748 z"
       inkscape:randomized="0.047"
       inkscape:rounded="0.21"
       inkscape:flatsided="false"
       sodipodi:arg2="0.77161843"
       sodipodi:arg1="0.48833395"
       sodipodi:r2="9.3934679"
       sodipodi:r1="19.21225"
       sodipodi:cy="3933.4641"
       sodipodi:cx="90.665482"
       sodipodi:sides="6"
       id="path2574"
       style="color:#000000;fill:#ff9400;fill-opacity:1;fill-rule:nonzero;stroke:none;stroke-width:3pt;stroke-linecap:butt;stroke-linejoin:miter;stroke-miterlimit:4;stroke-dashoffset:0;stroke-opacity:1;marker:none;marker-start:none;marker-mid:none;marker-end:none"
       sodipodi:type="star" />
    <rect
       rx="10.42449"
       ry="10.42449"
       y="0"
       x="64.10627"
       height="56.564163"
       width="171.78746"
       id="rect3197"
       style="color:#000000;fill:#2dd268;fill-opacity:0.296089;fill-rule:nonzero;stroke:none;stroke-width:3pt;stroke-linecap:butt;stroke-linejoin:miter;stroke-miterlimit:4;stroke-dashoffset:0;stroke-opacity:1;marker:none;marker-start:none;marker-mid:none;marker-end:none" />
  </g>
</svg>
